{
 "add_total_row": 0, 
 "creation": "2019-01-04 21:24:33.433337", 
 "disabled": 0, 
 "docstatus": 0, 
 "doctype": "Report", 
 "idx": 0, 
 "is_standard": "Yes", 
 "letter_head": "KALTIMEX", 
 "modified": "2019-01-04 21:28:19.111265", 
 "modified_by": "Administrator", 
 "module": "Spare Part", 
 "name": "Given Under Loan", 
 "owner": "Administrator", 
 "prepared_report": 0, 
 "query": "SELECT\n    posting_date as \"Date:Date:100\",\n    `tabStock Entry`.name as \"Challan No:Link/Stock Entry:120\",\n    customer as \"Customer:Link/Customer:150\",\n    description as \"Description:Data:150\",\n    item_code as \"P/N No:Link/Item:150\",\n    qty as \"Qty:Float:150\",\n    return_date as \"Return Date:Date:150\",\n    remarks as \"Status:Data:150\"\nFROM\n    `tabStock Entry`\nLEFT JOIN\n    `tabStock Entry Detail`\n    ON `tabStock Entry`.name = `tabStock Entry Detail`.parent\nWHERE\n    `tabStock Entry`.docstatus=1 and purpose=\"Material Issue\"", 
 "ref_doctype": "Stock Entry", 
 "report_name": "Given Under Loan", 
 "report_type": "Query Report", 
 "roles": [
  {
   "role": "Stock User"
  }, 
  {
   "role": "Manufacturing User"
  }, 
  {
   "role": "Manufacturing Manager"
  }, 
  {
   "role": "Stock Manager"
  }
 ]
}