{
 "align_labels_right": 0, 
 "creation": "2018-10-17 15:42:32.156935", 
 "custom_format": 1, 
 "disabled": 0, 
 "doc_type": "Quotation", 
 "docstatus": 0, 
 "doctype": "Print Format", 
 "font": "Default", 
 "format_data": "[{\"fieldname\": \"print_heading_template\", \"fieldtype\": \"Custom HTML\", \"options\": \"<div class=\\\"print-heading\\\"><h2 class=\\\"text-center\\\">Quotation</h2></div>\"}, {\"fieldtype\": \"Section Break\", \"label\": \"\"}, {\"fieldtype\": \"Column Break\"}, {\"print_hide\": 0, \"label\": \"Custom HTML\", \"fieldname\": \"_custom_html\", \"options\": \"<div class=\\\"row important data-field\\\" data-fieldname=\\\"name\\\" data-fieldtype=\\\"Data\\\">\\n    <div class=\\\"col-xs-5\\\"><label>{{ _(\\\"Ref No\\\") }}</label></div>\\n    <div class=\\\"col-xs-7 value\\\">{{ doc.name }}</div>\\n</div>\", \"fieldtype\": \"HTML\"}, {\"print_hide\": 0, \"fieldname\": \"customer_name\", \"align\": \"left\", \"label\": \"Customer Name\"}, {\"fieldtype\": \"Column Break\"}, {\"print_hide\": 0, \"fieldname\": \"transaction_date\", \"label\": \"Date\"}, {\"print_hide\": 0, \"fieldname\": \"valid_till\", \"label\": \"Valid Till\"}, {\"fieldtype\": \"Section Break\", \"label\": \"Address\"}, {\"fieldtype\": \"Column Break\"}, {\"print_hide\": 0, \"fieldname\": \"address_display\", \"label\": \"Address\"}, {\"print_hide\": 0, \"fieldname\": \"contact_display\", \"label\": \"Contact\"}, {\"print_hide\": 0, \"fieldname\": \"contact_mobile\", \"label\": \"Mobile No\"}, {\"fieldtype\": \"Column Break\"}, {\"fieldtype\": \"Section Break\", \"label\": \"Engine\"}, {\"fieldtype\": \"Column Break\"}, {\"print_hide\": 0, \"fieldname\": \"scope_of_job\", \"label\": \"Scope of Job\"}, {\"visible_columns\": [{\"print_hide\": 0, \"fieldname\": \"engine_model\", \"print_width\": \"\"}, {\"print_hide\": 0, \"fieldname\": \"engine_sl\", \"print_width\": \"\"}], \"print_hide\": 0, \"fieldname\": \"engines\", \"label\": \"Engines\"}, {\"fieldtype\": \"Section Break\", \"label\": \"\"}, {\"fieldtype\": \"Column Break\"}, {\"print_hide\": 0, \"label\": \"Custom HTML\", \"fieldname\": \"_custom_html\", \"options\": \"<p>\\nDear Sir, <br>\\n\\nWe are submitting the Quotation of spare parts and the terms and conditions are given below:\\n</p>\", \"fieldtype\": \"HTML\"}, {\"fieldtype\": \"Section Break\", \"label\": \"\"}, {\"fieldtype\": \"Column Break\"}, {\"visible_columns\": [{\"print_hide\": 0, \"fieldname\": \"item_code\", \"print_width\": \"\"}, {\"print_hide\": 0, \"fieldname\": \"description\", \"print_width\": \"300px\"}, {\"print_hide\": 0, \"fieldname\": \"qty\", \"print_width\": \"100px\"}, {\"print_hide\": 0, \"fieldname\": \"stock_uom\", \"print_width\": \"100px\"}, {\"print_hide\": 0, \"fieldname\": \"rate\", \"print_width\": \"100px\"}, {\"print_hide\": 0, \"fieldname\": \"amount\", \"print_width\": \"100px\"}], \"print_hide\": 0, \"fieldname\": \"items\", \"label\": \"Items\"}, {\"fieldtype\": \"Section Break\", \"label\": \"\"}, {\"fieldtype\": \"Column Break\"}, {\"print_hide\": 0, \"fieldname\": \"total_qty\", \"align\": \"left\", \"label\": \"Total Quantity\"}, {\"fieldtype\": \"Column Break\"}, {\"print_hide\": 0, \"fieldname\": \"total\", \"align\": \"left\", \"label\": \"Total\"}, {\"fieldtype\": \"Section Break\", \"label\": \"\"}, {\"fieldtype\": \"Column Break\"}, {\"visible_columns\": [{\"print_hide\": 0, \"fieldname\": \"charge_type\", \"print_width\": \"\"}, {\"print_hide\": 0, \"fieldname\": \"row_id\", \"print_width\": \"\"}, {\"print_hide\": 0, \"fieldname\": \"account_head\", \"print_width\": \"\"}, {\"print_hide\": 0, \"fieldname\": \"cost_center\", \"print_width\": \"\"}, {\"print_hide\": 0, \"fieldname\": \"description\", \"print_width\": \"300px\"}, {\"print_hide\": 0, \"fieldname\": \"rate\", \"print_width\": \"\"}, {\"print_hide\": 0, \"fieldname\": \"tax_amount\", \"print_width\": \"\"}, {\"print_hide\": 0, \"fieldname\": \"total\", \"print_width\": \"\"}, {\"print_hide\": 0, \"fieldname\": \"tax_amount_after_discount_amount\", \"print_width\": \"\"}, {\"print_hide\": 0, \"fieldname\": \"base_tax_amount\", \"print_width\": \"\"}, {\"print_hide\": 0, \"fieldname\": \"base_total\", \"print_width\": \"\"}, {\"print_hide\": 0, \"fieldname\": \"base_tax_amount_after_discount_amount\", \"print_width\": \"\"}, {\"print_hide\": 0, \"fieldname\": \"item_wise_tax_detail\", \"print_width\": \"\"}], \"print_hide\": 0, \"fieldname\": \"taxes\", \"label\": \"Sales Taxes and Charges\"}, {\"fieldtype\": \"Section Break\", \"label\": \"\"}, {\"fieldtype\": \"Column Break\"}, {\"fieldtype\": \"Column Break\"}, {\"print_hide\": 0, \"fieldname\": \"grand_total\", \"label\": \"Grand Total\"}, {\"print_hide\": 0, \"fieldname\": \"rounded_total\", \"label\": \"Rounded Total\"}, {\"fieldtype\": \"Section Break\", \"label\": \"Terms\"}, {\"fieldtype\": \"Column Break\"}, {\"print_hide\": 0, \"fieldname\": \"in_words\", \"label\": \"In Words\"}, {\"print_hide\": 0, \"fieldname\": \"terms\", \"label\": \"Term Details\"}, {\"fieldtype\": \"Section Break\", \"label\": \"More\"}, {\"fieldtype\": \"Column Break\"}, {\"fieldtype\": \"Column Break\"}, {\"print_hide\": 0, \"fieldname\": \"supplier_quotation\", \"label\": \"Supplier Quotation\"}, {\"fieldtype\": \"Section Break\", \"label\": \"\"}, {\"fieldtype\": \"Column Break\"}, {\"print_hide\": 0, \"label\": \"Custom HTML\", \"fieldname\": \"_custom_html\", \"options\": \"<p>Note: Please confirm us before opening LC/TT. We will provide our Proforma Invoice and bank details after receiving confirmation from your end for this quotation.</p>\\n\\n<p>\\nThanking you and assuring you our best service and attention always.</p>\\n\\nYours truly,\", \"fieldtype\": \"HTML\"}, {\"print_hide\": 0, \"label\": \"Custom HTML\", \"fieldname\": \"_custom_html\", \"options\": \"For  <img style=\\\"width:100px\\\" src=\\\"/private/files/Picture1.png\\\" alt=\\\"\\\"><br>\\n__________________ <br>\\n K.K.Ralhan <br>\\n Managing Director\", \"fieldtype\": \"HTML\"}]", 
 "idx": 0, 
 "line_breaks": 0, 
 "modified": "2018-10-22 15:18:43.520515", 
 "modified_by": "Administrator", 
 "module": "Spare Part", 
 "name": "Quotation Print", 
 "owner": "Administrator", 
 "print_format_builder": 1, 
 "print_format_type": "Server", 
 "show_section_headings": 0, 
 "standard": "Yes"
}