{
 "align_labels_right": 0, 
 "creation": "2018-10-22 13:22:31.648610", 
 "css": "    .print-format {\n        font-family: Helvetica, sans-serif;\n        font-size: 11px;\n    }\n.print-heading {\n\tdisplay:none;\n}\n    .print-format h5 {\n        font-size: 20px;\n    }\n    /*#main{margin: 20px auto}*/\n    .title {\n        font-size: 1.25rem;\n        text-align: center;\n        background-color: #e6b8b878;\n        border: 1px solid #000;\n        padding: 5px;\n        margin-bottom: 10px;\n        font-weight: bold;\n        color: #c13c3c;\n        line-height: 1;\n        margin-top: 5px;\n    }\n\n    table {\n        border-color: #000\n    }\n\n    .bold {\n        font-weight: bold;\n    }\n\n    .table td,\n    .table th {\n        padding: .2rem\n    }\n\n    .reg-no {\n        display: block;\n        border-top: 2px solid #eee;\n        text-align: right;\n        bottom: -18px;\n        position: absolute;\n        width: 100%;\n    }\n\n    .logo {\n        width: 100%;\n        overflow: hidden;\n    }\n\n    .logo img {\n        /*width: 100%;*/\n        max-height: 100px;\n    }\n\n    .tag-line {\n        text-align: center;\n        width: 100%;\n        font-weight: bold;\n        margin-bottom: 0;\n    }\n\n    .horline {\n        width: 250px;\n        height: 2px;\n        background-color: #eee;\n        display: block;\n    }\n\n    .header {\n        margin-bottom: 9px;\n        margin-top: 38px;\n    }\n\n    #main {\n        padding-top: 10px\n    }", 
 "custom_format": 0, 
 "disabled": 0, 
 "doc_type": "Delivery Note", 
 "docstatus": 0, 
 "doctype": "Print Format", 
 "font": "Default", 
 "format_data": "[{\"fieldname\": \"print_heading_template\", \"fieldtype\": \"Custom HTML\", \"options\": \"<div class=\\\"print-heading\\\">\\t\\t\\t\\t<h2>Delivery Note<br><small>{{ doc.name }}</small>\\t\\t\\t\\t</h2></div>\"}, {\"fieldtype\": \"Section Break\", \"label\": \"\"}, {\"fieldtype\": \"Column Break\"}, {\"print_hide\": 0, \"options\": \"\\n    <div class=\\\"row\\\">\\n        <div id=\\\"main\\\" class=\\\"col-md-12\\\">\\n\\t<h4 class=\\\"title\\\">{{ doc.select_print_heading or _(\\\"Sales Dispatch\\\") }}</h4>\\n\\t<table class=\\\"table table-bordered\\\">\\n                <tr>\\n                    <th width=\\\"20%\\\">{{ _(\\\"Ref No:\\\") }}</th>\\n                    <td>{{ doc.name }}</td>\\n                    <th>{{ _(\\\"Date\\\") }}</th>\\n                    <td colspan=\\\"3\\\"> {{ frappe.utils.getdate(doc.transaction_date).strftime('%d-%b-%Y') }}</td>\\n                </tr>\\n                <tr>\\n                    <th width=\\\"20%\\\">{{ _(\\\"Client Name\\\") }}</th>\\n                    <td colspan=\\\"5\\\">{{ doc.customer_name }} </td>\\n                </tr>\\n                <tr>\\n                    <th width=\\\"20%\\\">{{ _(\\\"Address\\\") }}</th>\\n                    {% if doc.address_display %}\\n                    {% set address = doc.address_display.replace('<br>', ', ').rstrip() %}\\n                    {% else %}\\n                    {% set address = \\\"\\\" %}\\n                    {% endif %}\\n                    <td colspan=\\\"5\\\">{% if address[-1]==',' %}{{ address[:-1] }} {% else %} {{ address }} {% endif %}</td>\\n                </tr>\\n                {% if doc.invoice_charge_type %}\\n                <tr>\\n                    <th width=\\\"20%\\\">{{ _(\\\"Invoice Type\\\") }}</th>\\n                    <td colspan=\\\"3\\\"><b>{{ doc.invoice_charge_type or \\\"\\\" }}</b></td>\\n                </tr>\\n                {% endif %}\\n            </table>\\n</div></div>\", \"fieldname\": \"_custom_html\", \"fieldtype\": \"HTML\", \"label\": \"Custom HTML\"}, {\"fieldtype\": \"Section Break\", \"label\": \"\"}, {\"fieldtype\": \"Column Break\"}, {\"print_hide\": 0, \"options\": \"<table class=\\\"table table-bordered\\\">\\n    <thead>\\n        <th>{{ _(\\\"Sl\\\") }}</th>\\n        <th>{{ _(\\\"Part No.\\\") }}</th>\\n        <th>{{ _(\\\"Part Description\\\") }}</th>\\n        <th>{{ _(\\\"Qty\\\") }}</th>\\n    </thead>\\n    <tbody>\\n        {% for row in doc.items %}\\n            <tr>\\n                <td>{{ loop.index }}</td>\\n                <td>{{ row.item_code  }}</td>\\n                <td>{{ row.description  }}</td>\\n                <td>{{ row.qty  }} {{ row.stock_uom  }}</td>\\n            </tr>\\n        {% endfor %}\\n            <tr>\\n                <td colspan=\\\"3\\\" class=\\\"text-right\\\">{{ _(\\\"Total\\\")  }}</td>\\n                <td>{{ doc.total_qty  }}</td>\\n            </tr>\\n    </tbody>\\n</table> \", \"fieldname\": \"_custom_html\", \"fieldtype\": \"HTML\", \"label\": \"Custom HTML\"}, {\"fieldtype\": \"Section Break\", \"label\": \"Terms\"}, {\"fieldtype\": \"Column Break\"}, {\"print_hide\": 0, \"fieldname\": \"terms\", \"label\": \"Terms and Conditions Details\"}]", 
 "idx": 0, 
 "line_breaks": 0, 
 "modified": "2019-02-09 08:39:39.286631", 
 "modified_by": "Administrator", 
 "module": "Spare Part", 
 "name": "Chalan", 
 "owner": "Administrator", 
 "print_format_builder": 1, 
 "print_format_type": "Server", 
 "show_section_headings": 0, 
 "standard": "Yes"
}